%YAML 1.1
%TAG !u! tag:unity3d.com,2011:
--- !u!114 &11400000
MonoBehaviour:
  m_ObjectHideFlags: 0
  m_PrefabParentObject: {fileID: 0}
  m_PrefabInternal: {fileID: 0}
  m_GameObject: {fileID: 0}
  m_Enabled: 1
  m_EditorHideFlags: 0
  m_Script: {fileID: 11500000, guid: 35e1f03edcabb1947b447e081ced9de1, type: 3}
  m_Name: MisileAttack
  m_EditorClassIdentifier: 
  sound: {fileID: 8300000, guid: 0f07d623e2dc3414d98bdda7dec2bee8, type: 3}
  rate: 2
  bullet: {fileID: 1835611474140406, guid: 45e2f9e9dd581c340a0180c1b4bb0e10, type: 2}
  speed: 20
  color: {r: 1, g: 1, b: 1, a: 1}
  collisionEffect: {fileID: 11400000, guid: fe5c1cbe16b68344fb05998f0815519c, type: 2}
